<?xml version="1.0" encoding="utf-8"?>
<!-- Generator: Adobe Illustrator 23.0.6, SVG Export Plug-In . SVG Version: 6.00 Build 0)  -->
<svg version="1.1" id="Layer_1" xmlns="http://www.w3.org/2000/svg" xmlns:xlink="http://www.w3.org/1999/xlink" x="0px" y="0px"
	 viewBox="0 0 100 100" style="enable-background:new 0 0 100 100;" xml:space="preserve">
<style type="text/css">
	.st0{display:none;}
	.st1{display:inline;}
	.st2{fill:none;stroke:#FFFFFF;stroke-width:2;stroke-miterlimit:10;}
	.st3{display:inline;fill:none;stroke:#FFFFFF;stroke-width:2;stroke-miterlimit:10;}
</style>
<circle cx="49.55" cy="50.03" r="49.1"/>
<g class="st0">
	<g class="st1">
		<g>
			<polygon class="st2" points="56.96,46 41.92,37.52 27.06,46.32 27.24,63.58 42.29,72.06 57.15,63.26 			"/>
			<polyline class="st2" points="86.71,45.59 71.67,37.12 56.81,45.91 56.99,63.17 			"/>
			<polyline class="st2" points="42.29,72.06 27.24,63.58 12.38,72.38 			"/>
		</g>
		<line class="st2" x1="68.29" y1="21.57" x2="68.34" y2="38.83"/>
		<line class="st2" x1="74.45" y1="21.57" x2="74.5" y2="38.83"/>
	</g>
	<path class="st3" d="M54.04,47.73"/>
	<line class="st3" x1="42.22" y1="65.5" x2="51.43" y2="60.04"/>
	<path class="st3" d="M42.25,68.66"/>
	<line class="st3" x1="32.77" y1="49.54" x2="32.89" y2="60.24"/>
	<path class="st3" d="M41.95,40.92"/>
	<line class="st3" x1="51.32" y1="49.34" x2="41.99" y2="44.08"/>
</g>
<circle cx="50" cy="49.82" r="49.59"/>
<rect x="51.97" y="27.32" transform="matrix(0.7071 0.7071 -0.7071 0.7071 41.9134 -39.9838)" class="st2" width="34.51" height="6.56"/>
<polygon class="st2" points="79.1,45.12 54.7,20.72 28.2,55.81 44.01,71.62 "/>
<rect x="30.35" y="62.97" transform="matrix(0.7071 0.7071 -0.7071 0.7071 56.3775 -5.0645)" class="st2" width="7.91" height="5.11"/>
<rect x="22.74" y="66.49" transform="matrix(0.7071 0.7071 -0.7071 0.7071 57.9619 -1.2394)" class="st2" width="15.48" height="5.71"/>
</svg>
