[
   {
            "id": "1",
           "product_title": "Molecular Saviour Probiotics Repair Mist",
            "product_desc": "Hydrates and brightens stressed skin. Refines pores. Reduces breakouts.",
            "product_volume": "60 ML",
            "product_price":"$59.00",
            "product_review":"186 REVIEWS",
            "product_image": "https://alliesofskin.com/pub/media/catalog/product/cache/9a0be557ec96f7c0e07820024ca1e632/t/_/t_molecular-saviour-probiotic-mist_2.jpg",
            "product_add_order": "Pre Order"        
        }
]        